Data Modification
…
##What if you wanted see all NA values

mc_smc.df %>% filter(!is.na(dry_wt_g_l))

## # A tibble: 97 x 15
##    datetime            site  w_temp_c volume_filtered… tare_g dry_105c_g
##    <dttm>              <chr>    <dbl>            <dbl>  <dbl>      <dbl>
##  1 2015-01-15 09:54:00 mc         0              0.6   0.104      0.108 
##  2 2015-01-29 09:10:00 mc        NA              0.65  0.107      0.110 
##  3 2015-02-12 10:57:00 mc         0              0.5   0.102      0.111 
##  4 2015-03-12 11:15:00 mc         5.4            0.52  0.105      0.111 
##  5 2015-03-26 11:15:00 mc         6.5            0.455 0.102      0.0988
##  6 2015-04-09 10:00:00 mc        13.5            0.425 0.0959     0.111 
##  7 2015-04-23 12:50:00 mc        13.4            0.51  0.103      0.108 
##  8 2015-05-07 14:40:00 mc        20.3            0.55  0.104      0.114 
##  9 2015-05-21 11:40:00 mc        12.4            0.5   0.102      0.118 
## 10 2015-06-04 11:25:00 mc        16.8            0.52  0.105      0.120 
## # … with 87 more rows, and 9 more variables: turbidity_ntu <dbl>,
## #   tp_ugl <dbl>, drp_ugl <dbl>, dry_wt_g <dbl>, dry_wt_g_l <dbl>,
## #   year <dbl>, month <dbl>, day <int>, julian_day <dbl>

##Groups and summmarize data

Now a really cool thing we can do is to group data and then look at summairies of the data or use it later down the road.

So lets say we wanted to see the mean temperature by month in each stream

mc_smc.df %>% group_by(site, year, month) %>%
  mutate(
    mean_temp_c = mean(w_temp_c)
  )

## # A tibble: 102 x 16
## # Groups:   site, year, month [48]
##    datetime            site  w_temp_c volume_filtered…  tare_g dry_105c_g
##    <dttm>              <chr>    <dbl>            <dbl>   <dbl>      <dbl>
##  1 2015-01-15 09:54:00 mc         0              0.6    0.104      0.108 
##  2 2015-01-29 09:10:00 mc        NA              0.65   0.107      0.110 
##  3 2015-02-12 10:57:00 mc         0              0.5    0.102      0.111 
##  4 2015-02-26 12:12:00 mc        NA             NA     NA         NA     
##  5 2015-03-12 11:15:00 mc         5.4            0.52   0.105      0.111 
##  6 2015-03-26 11:15:00 mc         6.5            0.455  0.102      0.0988
##  7 2015-04-09 10:00:00 mc        13.5            0.425  0.0959     0.111 
##  8 2015-04-23 12:50:00 mc        13.4            0.51   0.103      0.108 
##  9 2015-05-07 14:40:00 mc        20.3            0.55   0.104      0.114 
## 10 2015-05-21 11:40:00 mc        12.4            0.5    0.102      0.118 
## # … with 92 more rows, and 10 more variables: turbidity_ntu <dbl>,
## #   tp_ugl <dbl>, drp_ugl <dbl>, dry_wt_g <dbl>, dry_wt_g_l <dbl>,
## #   year <dbl>, month <dbl>, day <int>, julian_day <dbl>,
## #   mean_temp_c <dbl>

We can also use the summarize function but it leads to something different. What you get is the grouping variable and the varaibles you are summarizing. I have found a neat way to get others and that is using the first(varaible) summarize term to get the first value of a group.

mc_smc.df %>% group_by(site, year, month) %>%
  summarize(
    mean_temp_c = mean(w_temp_c)
  )

## # A tibble: 48 x 4
## # Groups:   site, year [4]
##    site   year month mean_temp_c
##    <chr> <dbl> <dbl>       <dbl>
##  1 mc     2015     1       NA   
##  2 mc     2015     2       NA   
##  3 mc     2015     3        5.95
##  4 mc     2015     4       13.4 
##  5 mc     2015     5       16.4 
##  6 mc     2015     6       18.6 
##  7 mc     2015     7       NA   
##  8 mc     2015     8       19.8 
##  9 mc     2015     9       19.4 
## 10 mc     2015    10       16.5 
## # … with 38 more rows

You should get used to adding in the term na.rm=TRUE on all of your calculations. If you don’t you can see the results below.

mc_smc.df %>% group_by(site, year, month) %>%
  summarize(
    mean_temp_c = mean(w_temp_c),
    mean_temp_c_2 = mean(w_temp_c, na.rm=TRUE)
  )

## # A tibble: 48 x 5
## # Groups:   site, year [4]
##    site   year month mean_temp_c mean_temp_c_2
##    <chr> <dbl> <dbl>       <dbl>         <dbl>
##  1 mc     2015     1       NA             0   
##  2 mc     2015     2       NA             0   
##  3 mc     2015     3        5.95          5.95
##  4 mc     2015     4       13.4          13.4 
##  5 mc     2015     5       16.4          16.4 
##  6 mc     2015     6       18.6          18.6 
##  7 mc     2015     7       NA            20.1 
##  8 mc     2015     8       19.8          19.8 
##  9 mc     2015     9       19.4          19.4 
## 10 mc     2015    10       16.5          16.5 
## # … with 38 more rows
…
