Modifying dataframes using selet and filter
…
Filtering data

We just saw how to reorder columns or remove them. Here we will go over how to filter data to remove rows based on different statements.

# Filtering data and counting data ----
# there are several boolean operators that are useful for filtering data
# we can use these to just see the data or we can use to 

# lets say we wanted to look at only one lake
lakes.df %>% filter(org_l >5) %>%  filter(lake_name == "Willis")

## # A tibble: 32 x 5
##    group      genus_species          date       lake_name org_l
##    <chr>      <chr>                  <date>     <chr>     <dbl>
##  1 Cladoceran Holopedium_giberum     1996-06-17 Willis    31.6 
##  2 Copepod    Leptodiaptomus_minutus 1996-06-17 Willis    19.6 
##  3 Cladoceran Bosmina_longirostris   1998-07-13 Willis     7.96
##  4 Cladoceran Bosmina_longirostris   2001-07-17 Willis     5.19
##  5 Cladoceran Bosmina_longirostris   2006-07-18 Willis     7.5 
##  6 Cladoceran Holopedium_giberum     2006-07-18 Willis     5.15
##  7 Copepod    Leptodiaptomus_minutus 2006-07-18 Willis    17.2 
##  8 Copepod    Leptodiaptomus_minutus 2005-07-19 Willis    11   
##  9 Copepod    Leptodiaptomus_minutus 1996-07-22 Willis    18.2 
## 10 Copepod    Mesocyclops_edax       1994-07-27 Willis    33.1 
## # … with 22 more rows
…
